Access and Summarise World Health Organization Tuberculosis Data • getTBinR
…
getTBinR::summarise_metric(metric = "e_inc_100k",
                           countries = "United Kingdom")
#> # A tibble: 1 x 6
#>   country         year metric        world_rank region_rank avg_change
#>   <chr>          <int> <chr>              <int>       <int> <chr>     
#> 1 United Kingdom  2018 8 (7.2 - 8.8)        165          33 -5.9%

Or a more detailed dataset as follows,

getTBinR::summarise_tb_burden(metric = "e_inc_num",
                              stat = "rate",
                              countries = "United Kingdom",
                              compare_to_world = FALSE,
                              compare_to_region = FALSE)
#> # A tibble: 133 x 5
#>    area            year e_inc_num e_inc_num_lo e_inc_num_hi
#>    <fct>          <int>     <dbl>        <dbl>        <dbl>
#>  1 United Kingdom  2000      11.9         10.7         13.1
#>  2 United Kingdom  2001      11.5         10.3         12.7
#>  3 United Kingdom  2002      13.1         11.8         14.3
#>  4 United Kingdom  2003      13.4         12.1         14.8
#>  5 United Kingdom  2004      13.2         11.9         14.5
#>  6 United Kingdom  2005      15.3         13.8         16.6
#>  7 United Kingdom  2006      15.3         13.8         16.4
#>  8 United Kingdom  2007      14.6         13.2         16.1
#>  9 United Kingdom  2008      15.0         13.5         16.1
#> 10 United Kingdom  2009      14.5         13.1         15.9
#> # … with 123 more rows
…
Community engagement
Lists community engagement programmes. Highly detailed, with good data dictionary coverage but lots of missing data.
2013-2018
no

Laboratories
Country specific laboratory data. Highly detailed, with good data dictionary coverage but lots of missing data.
2009-2018
no

These datasets can be imported into R by supplying the name of the required dataset to the additional_datasets argument of get_tb_burden (or any of the various plotting/summary functions). Alternatively, they can all be imported in one go using additional_datasets = "all", as below,

getTBinR::get_tb_burden(additional_datasets = "all")
#> # A tibble: 8,694 x 485
#>    country iso2  iso3  iso_numeric g_whoregion  year e_pop_num e_inc_100k
#>    <chr>   <chr> <chr>       <int> <chr>       <int>     <int>      <dbl>
#>  1 Afghan… AF    AFG             4 Eastern Me…  2000  20779953        190
#>  2 Afghan… AF    AFG             4 Eastern Me…  2001  21606988        189
#>  3 Afghan… AF    AFG             4 Eastern Me…  2002  22600770        189
#>  4 Afghan… AF    AFG             4 Eastern Me…  2003  23680871        189
#>  5 Afghan… AF    AFG             4 Eastern Me…  2004  24726684        189
#>  6 Afghan… AF    AFG             4 Eastern Me…  2005  25654277        189
#>  7 Afghan… AF    AFG             4 Eastern Me…  2006  26433049        189
#>  8 Afghan… AF    AFG             4 Eastern Me…  2007  27100536        189
#>  9 Afghan… AF    AFG             4 Eastern Me…  2008  27722276        189
#> 10 Afghan… AF    AFG             4 Eastern Me…  2009  28394813        189
#> # … with 8,684 more rows, and 477 more variables: e_inc_100k_lo <dbl>,
#> #   e_inc_100k_hi <dbl>, e_inc_num <int>, e_inc_num_lo <int>,
#> #   e_inc_num_hi <int>, e_tbhiv_prct <dbl>, e_tbhiv_prct_lo <dbl>,
#> #   e_tbhiv_prct_hi <dbl>, e_inc_tbhiv_100k <dbl>, e_inc_tbhiv_100k_lo <dbl>,
#> #   e_inc_tbhiv_100k_hi <dbl>, e_inc_tbhiv_num <int>, e_inc_tbhiv_num_lo <int>,
#> #   e_inc_tbhiv_num_hi <int>, e_mort_exc_tbhiv_100k <dbl>,
#> #   e_mort_exc_tbhiv_100k_lo <dbl>, e_mort_exc_tbhiv_100k_hi <dbl>,
#> #   e_mort_exc_tbhiv_num <int>, e_mort_exc_tbhiv_num_lo <int>,
#> #   e_mort_exc_tbhiv_num_hi <int>, e_mort_tbhiv_100k <dbl>,
…
