…
Or a more detailed dataset as follows,

``` r
getTBinR::summarise_tb_burden(metric = "e_inc_num",
                              stat = "rate",
                              countries = "United Kingdom", 
                              compare_to_world = FALSE, 
                              compare_to_region = FALSE,
                              verbose = FALSE) 
#> # A tibble: 126 x 5
#>    area            year e_inc_num e_inc_num_lo e_inc_num_hi
#>    <fct>          <int>     <dbl>        <dbl>        <dbl>
#>  1 United Kingdom  2000      11.9         10.7         13.1
#>  2 United Kingdom  2001      11.5         10.3         12.7
#>  3 United Kingdom  2002      13.1         11.8         14.3
#>  4 United Kingdom  2003      13.4         12.1         14.8
#>  5 United Kingdom  2004      13.2         11.9         14.5
#>  6 United Kingdom  2005      15.3         13.8         16.6
#>  7 United Kingdom  2006      15.3         13.8         16.4
#>  8 United Kingdom  2007      14.7         13.2         16.1
#>  9 United Kingdom  2008      15.0         13.5         16.1
#> 10 United Kingdom  2009      14.5         13.1         15.9
#> # … with 116 more rows
```
…
