Exploring Estimates of the Tuberculosis Case Fatality Ratio • getTBinR
…
Now we use getTBinR to download the TB burden data and its accompanying data dictionary.

tb_burden <- get_tb_burden(verbose = FALSE)
dict <- get_data_dict(verbose = FALSE)

tb_burden
#> # A tibble: 3,850 x 68
#>    country iso2  iso3  iso_numeric g_whoregion  year e_pop_num e_inc_100k
#>    <chr>   <chr> <chr>       <int> <chr>       <int>     <int>      <dbl>
#>  1 Afghan… AF    AFG             4 Eastern Me…  2000  20093756        190
#>  2 Afghan… AF    AFG             4 Eastern Me…  2001  20966463        189
#>  3 Afghan… AF    AFG             4 Eastern Me…  2002  21979923        189
#>  4 Afghan… AF    AFG             4 Eastern Me…  2003  23064851        189
#>  5 Afghan… AF    AFG             4 Eastern Me…  2004  24118979        189
#>  6 Afghan… AF    AFG             4 Eastern Me…  2005  25070798        189
#>  7 Afghan… AF    AFG             4 Eastern Me…  2006  25893450        189
#>  8 Afghan… AF    AFG             4 Eastern Me…  2007  26616792        189
#>  9 Afghan… AF    AFG             4 Eastern Me…  2008  27294031        189
#> 10 Afghan… AF    AFG             4 Eastern Me…  2009  28004331        189
#> # … with 3,840 more rows, and 60 more variables: e_inc_100k_lo <dbl>,
#> #   e_inc_100k_hi <dbl>, e_inc_num <int>, e_inc_num_lo <int>,
#> #   e_inc_num_hi <int>, e_tbhiv_prct <dbl>, e_tbhiv_prct_lo <dbl>,
#> #   e_tbhiv_prct_hi <dbl>, e_inc_tbhiv_100k <dbl>,
#> #   e_inc_tbhiv_100k_lo <dbl>, e_inc_tbhiv_100k_hi <dbl>,
#> #   e_inc_tbhiv_num <int>, e_inc_tbhiv_num_lo <int>,
#> #   e_inc_tbhiv_num_hi <int>, e_mort_exc_tbhiv_100k <dbl>,
#> #   e_mort_exc_tbhiv_100k_lo <dbl>, e_mort_exc_tbhiv_100k_hi <dbl>,
#> #   e_mort_exc_tbhiv_num <int>, e_mort_exc_tbhiv_num_lo <int>,
…
dict
#> # A tibble: 470 x 4
#>    variable_name  dataset code_list definition                             
#>    <chr>          <chr>   <chr>     <chr>                                  
#>  1 budget_cpp_ds… Budget  ""        Average cost of drugs budgeted per pat…
#>  2 budget_cpp_mdr Budget  ""        Average cost of drugs budgeted per pat…
#>  3 budget_cpp_xdr Budget  ""        Average cost of drugs budgeted per pat…
#>  4 budget_fld     Budget  ""        Budget required for drugs to treat dru…
#>  5 budget_lab     Budget  ""        Budget required for laboratory infrast…
#>  6 budget_mdrmgt  Budget  ""        Budget required for programme costs to…
#>  7 budget_orsrvy  Budget  ""        Budget required for operational resear…
#>  8 budget_oth     Budget  ""        Budget required for all other budget l…
#>  9 budget_patsup  Budget  ""        Budget required for patient support (U…
#> 10 budget_prog    Budget  ""        Budget required for programme costs to…
#> # … with 460 more rows
…
We then estimate the regional case fatality ratio by taking the regional mortality rate and dividing it by the regional incidence rate for each year (Note: Again this is now possible using plot_tb_burden_summary - by changing the metric and denom arguments). We also do this for the high and low mortality rate estimates (using the lowest estimate for TB mortality and the highest estimate for incidence rates to get the lower bound, and vice versa for the high bound). This gives,

region_case_fatality <- tb_burden %>% 
  rate_region(metric = "e_inc_num") %>% 
  left_join(tb_burden %>% 
              rate_region(metric = "e_mort_num")) %>% 
  mutate(case_fat_rate = e_mort_num / e_inc_num,
         case_fat_rate_lo = e_mort_num_lo / e_inc_num_hi,
         case_fat_rate_hi = e_mort_num_hi / e_inc_num_lo)
#> Joining, by = c("year", "g_whoregion", "e_pop_num")

region_case_fatality
#> # A tibble: 108 x 12
#>     year g_whoregion e_inc_num e_inc_num_lo e_inc_num_hi e_pop_num
#>    <int> <chr>           <dbl>        <dbl>        <dbl>     <dbl>
#>  1  2000 Africa          332.         210.         481.     6.59e8
#>  2  2000 Americas         35.9         28.4         44.3    8.37e8
#>  3  2000 Eastern Me…     127.          87.0        175.     4.81e8
#>  4  2000 Europe           52.2         37.6         69.1    8.69e8
#>  5  2000 South-East…     294.         181.         441.     1.57e9
#>  6  2000 Western Pa…     131.          92.0        179.     1.70e9
#>  7  2001 Africa          337.         215.         486.     6.76e8
#>  8  2001 Americas         34.2         27.1         42.2    8.48e8
#>  9  2001 Eastern Me…     126.          86.2        174.     4.92e8
#> 10  2001 Europe           51.7         37.3         68.3    8.70e8
#> # … with 98 more rows, and 6 more variables: e_mort_num <dbl>,
#> #   e_mort_num_lo <dbl>, e_mort_num_hi <dbl>, case_fat_rate <dbl>,
#> #   case_fat_rate_lo <dbl>, case_fat_rate_hi <dbl>
…
