Getting started with getTBinR • getTBinR
…
Getting TB burden data

Get TB burden data with a single function call. This will download the data if it has never been accessed and then save a local copy to R’s temporary directory (see tempdir()). If a local copy exists from the current session then this will be loaded instead.

tb_burden <- get_tb_burden()
#> Downloading data from: https://extranet.who.int/tme/generateCSV.asp?ds=estimates
#> Saving data to: /tmp/RtmpA9znKA/TB_burden.rds
#> Downloading data from: https://extranet.who.int/tme/generateCSV.asp?ds=mdr_rr_estimates
#> Saving data to: /tmp/RtmpA9znKA/MDR_TB.rds
#> Joining TB burden data and MDR TB data.

tb_burden
#> # A tibble: 3,850 x 68
#>    country iso2  iso3  iso_numeric g_whoregion  year e_pop_num e_inc_100k
#>    <chr>   <chr> <chr>       <int> <chr>       <int>     <int>      <dbl>
#>  1 Afghan… AF    AFG             4 Eastern Me…  2000  20093756        190
#>  2 Afghan… AF    AFG             4 Eastern Me…  2001  20966463        189
#>  3 Afghan… AF    AFG             4 Eastern Me…  2002  21979923        189
#>  4 Afghan… AF    AFG             4 Eastern Me…  2003  23064851        189
#>  5 Afghan… AF    AFG             4 Eastern Me…  2004  24118979        189
#>  6 Afghan… AF    AFG             4 Eastern Me…  2005  25070798        189
#>  7 Afghan… AF    AFG             4 Eastern Me…  2006  25893450        189
#>  8 Afghan… AF    AFG             4 Eastern Me…  2007  26616792        189
#>  9 Afghan… AF    AFG             4 Eastern Me…  2008  27294031        189
#> 10 Afghan… AF    AFG             4 Eastern Me…  2009  28004331        189
#> # … with 3,840 more rows, and 60 more variables: e_inc_100k_lo <dbl>,
#> #   e_inc_100k_hi <dbl>, e_inc_num <int>, e_inc_num_lo <int>,
#> #   e_inc_num_hi <int>, e_tbhiv_prct <dbl>, e_tbhiv_prct_lo <dbl>,
#> #   e_tbhiv_prct_hi <dbl>, e_inc_tbhiv_100k <dbl>,
#> #   e_inc_tbhiv_100k_lo <dbl>, e_inc_tbhiv_100k_hi <dbl>,
#> #   e_inc_tbhiv_num <int>, e_inc_tbhiv_num_lo <int>,
#> #   e_inc_tbhiv_num_hi <int>, e_mort_exc_tbhiv_100k <dbl>,
#> #   e_mort_exc_tbhiv_100k_lo <dbl>, e_mort_exc_tbhiv_100k_hi <dbl>,
#> #   e_mort_exc_tbhiv_num <int>, e_mort_exc_tbhiv_num_lo <int>,
…
