Search the WHO TB Data Dictionary by Variable Name. — search_data_dict • getTBinR
…
## Search for all variables in the Estimates dataset.
search_data_dict(dataset = "Estimates")
#> # A tibble: 65 x 4
#>    variable_name dataset   code_list definition                                 
#>    <chr>         <chr>     <chr>     <chr>                                      
#>  1 c_cdr         Estimates ""        Case detection rate (all forms) [also know…
#>  2 c_cdr_hi      Estimates ""        Case detection rate (all forms) [also know…
#>  3 c_cdr_lo      Estimates ""        Case detection rate (all forms) [also know…
#>  4 c_newinc_100k Estimates ""        Case notification rate, which is the total…
#>  5 cfr           Estimates ""        Estimated TB case fatality ratio           
#>  6 cfr_hi        Estimates ""        Estimated TB case fatality ratio: high bou…
#>  7 cfr_lo        Estimates ""        Estimated TB case fatality ratio: low bound
#>  8 cfr_pct       Estimates ""        Estimated TB case fatality ratio expressed…
#>  9 cfr_pct_hi    Estimates ""        Estimated TB case fatality ratio: high bou…
#> 10 cfr_pct_lo    Estimates ""        Estimated TB case fatality ratio: low boun…
#> # … with 55 more rows
…
