Import Clean Analysis Ready WHO Tuberculosis Data • getTBinR
…
library(getTBinR)
library(ggplot2)
library(knitr)
library(magrittr)
library(dplyr)

Getting TB burden data

Get TB burden data with a single function call. This will download the data if it has never been accessed and then save a local copy. If a local copy exists this will be loaded instead.

tb_burden <- get_tb_burden()

tb_burden
#> # A tibble: 3,651 x 71
#>        country  iso2  iso3 iso_numeric g_whoregion  year e_pop_num
#>          <chr> <chr> <chr>       <chr>       <chr> <int>     <int>
#>  1 Afghanistan    AF   AFG         004         EMR  2000  20093756
#>  2 Afghanistan    AF   AFG         004         EMR  2001  20966463
#>  3 Afghanistan    AF   AFG         004         EMR  2002  21979923
#>  4 Afghanistan    AF   AFG         004         EMR  2003  23064851
#>  5 Afghanistan    AF   AFG         004         EMR  2004  24118979
#>  6 Afghanistan    AF   AFG         004         EMR  2005  25070798
#>  7 Afghanistan    AF   AFG         004         EMR  2006  25893450
#>  8 Afghanistan    AF   AFG         004         EMR  2007  26616792
#>  9 Afghanistan    AF   AFG         004         EMR  2008  27294031
#> 10 Afghanistan    AF   AFG         004         EMR  2009  28004331
#> # ... with 3,641 more rows, and 64 more variables: e_inc_100k <dbl>,
#> #   e_inc_100k_lo <dbl>, e_inc_100k_hi <dbl>, e_inc_num <int>,
#> #   e_inc_num_lo <int>, e_inc_num_hi <int>, e_inc_num_f014 <int>,
#> #   e_inc_num_f014_lo <int>, e_inc_num_f014_hi <int>,
#> #   e_inc_num_f15plus <int>, e_inc_num_f15plus_lo <int>,
#> #   e_inc_num_f15plus_hi <int>, e_inc_num_f <int>, e_inc_num_f_lo <int>,
#> #   e_inc_num_f_hi <int>, e_inc_num_m014 <int>, e_inc_num_m014_lo <int>,
#> #   e_inc_num_m014_hi <int>, e_inc_num_m15plus <int>,
#> #   e_inc_num_m15plus_lo <int>, e_inc_num_m15plus_hi <int>,
…
