Getting started with getTBinR • Get WHO Tuberculosis Data in R
…
Getting TB burden data

Get TB burden data with a single function call. This will download the data if it has never been accessed and then save a local copy to R’s temporary directory (see tempdir()). If a local copy exists from the current seesion then this will be loaded instead.

tb_burden <- get_tb_burden()
#> Downloading data from: https://extranet.who.int/tme/generateCSV.asp?ds=estimates
#> Saving data to: /tmp/RtmpQd7Nb9/TB_burden.rds
#> Downloading data from: https://extranet.who.int/tme/generateCSV.asp?ds=mdr_rr_estimates
#> Saving data to: /tmp/RtmpQd7Nb9/MDR_TB.rds
#> Joining TB burden data and MDR TB data.

tb_burden
#> # A tibble: 3,651 x 91
#>    country  iso2  iso3  iso_numeric g_whoregion  year e_pop_num e_inc_100k
#>    <chr>    <chr> <chr>       <int> <chr>       <int>     <int>      <dbl>
#>  1 Afghani… AF    AFG             4 Eastern Me…  2000  20093756       190.
#>  2 Afghani… AF    AFG             4 Eastern Me…  2001  20966463       189.
#>  3 Afghani… AF    AFG             4 Eastern Me…  2002  21979923       189.
#>  4 Afghani… AF    AFG             4 Eastern Me…  2003  23064851       189.
#>  5 Afghani… AF    AFG             4 Eastern Me…  2004  24118979       189.
#>  6 Afghani… AF    AFG             4 Eastern Me…  2005  25070798       189.
#>  7 Afghani… AF    AFG             4 Eastern Me…  2006  25893450       189.
#>  8 Afghani… AF    AFG             4 Eastern Me…  2007  26616792       189.
#>  9 Afghani… AF    AFG             4 Eastern Me…  2008  27294031       189.
#> 10 Afghani… AF    AFG             4 Eastern Me…  2009  28004331       189.
#> # ... with 3,641 more rows, and 83 more variables: e_inc_100k_lo <dbl>,
#> #   e_inc_100k_hi <dbl>, e_inc_num <int>, e_inc_num_lo <int>,
#> #   e_inc_num_hi <int>, e_inc_num_f014 <int>, e_inc_num_f014_lo <int>,
#> #   e_inc_num_f014_hi <int>, e_inc_num_f15plus <int>,
#> #   e_inc_num_f15plus_lo <int>, e_inc_num_f15plus_hi <int>,
#> #   e_inc_num_f <int>, e_inc_num_f_lo <int>, e_inc_num_f_hi <int>,
#> #   e_inc_num_m014 <int>, e_inc_num_m014_lo <int>,
#> #   e_inc_num_m014_hi <int>, e_inc_num_m15plus <int>,
#> #   e_inc_num_m15plus_lo <int>, e_inc_num_m15plus_hi <int>,
…
