Summarise TB Burden — summarise_tb_burden • Get WHO Tuberculosis Data in R
…
## Get summary data for the UK, Europe and the world
## Bootstrapping CI's and calculating the incidence rate
summarise_tb_burden(metric = "e_inc_num",
                    samples = 100,
                    countries = "United Kingdom",
                    compare_to_world = TRUE,
                    compare_to_region = TRUE,
                    compute_rate = TRUE,
                    verbose = FALSE)
#> Joining, by = c("country", "iso2", "iso3", "iso_numeric", "year")
#> Joining, by = c("country", "iso2", "iso3", "iso_numeric", "year")
#> Joining, by = c("country", "iso2", "iso3", "iso_numeric", "year")
#> Joining, by = c("Area", "Year")
#> # A tibble: 51 x 5
#>    area                                year e_inc_num e_inc_num_lo e_inc_num_hi
#>    <fct>                              <int>     <dbl>        <dbl>        <dbl>
#>  1 United Kingdom of Great Britain a…  2000      12.0         10.7         13.2
#>  2 United Kingdom of Great Britain a…  2001      11.5         10.2         12.8
#>  3 United Kingdom of Great Britain a…  2002      13.2         12.1         14.3
#>  4 United Kingdom of Great Britain a…  2003      13.3         12.0         14.6
#>  5 United Kingdom of Great Britain a…  2004      13.2         11.8         14.6
#>  6 United Kingdom of Great Britain a…  2005      15.2         13.6         16.8
#>  7 United Kingdom of Great Britain a…  2006      15.3         14.0         16.5
#>  8 United Kingdom of Great Britain a…  2007      14.7         13.0         16.3
#>  9 United Kingdom of Great Britain a…  2008      15.0         13.7         16.2
#> 10 United Kingdom of Great Britain a…  2009      14.5         12.9         16.1
#> # ... with 41 more rows
…
