Exploring Estimates of the Tuberculosis Case Fatality Ratio • getTBinR
…
library(getTBinR)
library(dplyr)
library(ggplot2)
library(viridis)
library(scales)
library(knitr)

Now we use getTBinR to download the TB burden data and its accompanying data dictionary.

tb_burden <- get_tb_burden()
dict <- get_data_dict()

tb_burden
#> # A tibble: 4,031 x 71
#>    country iso2  iso3  iso_numeric g_whoregion  year e_pop_num e_inc_100k
#>    <chr>   <chr> <chr>       <int> <chr>       <int>     <int>      <dbl>
#>  1 Afghan… AF    AFG             4 Eastern Me…  2000  20779953        190
#>  2 Afghan… AF    AFG             4 Eastern Me…  2001  21606988        189
#>  3 Afghan… AF    AFG             4 Eastern Me…  2002  22600770        189
#>  4 Afghan… AF    AFG             4 Eastern Me…  2003  23680871        189
#>  5 Afghan… AF    AFG             4 Eastern Me…  2004  24726684        189
#>  6 Afghan… AF    AFG             4 Eastern Me…  2005  25654277        189
#>  7 Afghan… AF    AFG             4 Eastern Me…  2006  26433049        189
#>  8 Afghan… AF    AFG             4 Eastern Me…  2007  27100536        189
#>  9 Afghan… AF    AFG             4 Eastern Me…  2008  27722276        189
#> 10 Afghan… AF    AFG             4 Eastern Me…  2009  28394813        189
#> # … with 4,021 more rows, and 63 more variables: e_inc_100k_lo <dbl>,
#> #   e_inc_100k_hi <dbl>, e_inc_num <int>, e_inc_num_lo <int>,
#> #   e_inc_num_hi <int>, e_tbhiv_prct <dbl>, e_tbhiv_prct_lo <dbl>,
#> #   e_tbhiv_prct_hi <dbl>, e_inc_tbhiv_100k <dbl>, e_inc_tbhiv_100k_lo <dbl>,
#> #   e_inc_tbhiv_100k_hi <dbl>, e_inc_tbhiv_num <int>, e_inc_tbhiv_num_lo <int>,
#> #   e_inc_tbhiv_num_hi <int>, e_mort_exc_tbhiv_100k <dbl>,
#> #   e_mort_exc_tbhiv_100k_lo <dbl>, e_mort_exc_tbhiv_100k_hi <dbl>,
#> #   e_mort_exc_tbhiv_num <int>, e_mort_exc_tbhiv_num_lo <int>,
#> #   e_mort_exc_tbhiv_num_hi <int>, e_mort_tbhiv_100k <dbl>,
…
dict
#> # A tibble: 495 x 4
#>    variable_name   dataset code_list definition                                 
#>    <chr>           <chr>   <chr>     <chr>                                      
#>  1 budget_cpp_dstb Budget  ""        Average cost of drugs budgeted per patient…
#>  2 budget_cpp_mdr  Budget  ""        Average cost of drugs budgeted per patient…
#>  3 budget_cpp_xdr  Budget  ""        Average cost of drugs budgeted per patient…
#>  4 budget_fld      Budget  ""        Budget required for drugs to treat drug-su…
#>  5 budget_lab      Budget  ""        Budget required for laboratory infrastruct…
#>  6 budget_mdrmgt   Budget  ""        Budget required for programme costs to tre…
#>  7 budget_orsrvy   Budget  ""        Budget required for operational research a…
#>  8 budget_oth      Budget  ""        Budget required for all other budget line …
#>  9 budget_patsup   Budget  ""        Budget required for patient support (US Do…
#> 10 budget_prog     Budget  ""        Budget required for programme costs to tre…
#> # … with 485 more rows
…
We then estimate the regional case fatality ratio by taking the regional mortality rate and dividing it by the regional incidence rate for each year (Note: Again this is now possible using plot_tb_burden_summary - by changing the metric and denom arguments). We also do this for the high and low mortality rate estimates (using the lowest estimate for TB mortality and the highest estimate for incidence rates to get the lower bound, and vice versa for the high bound). This gives,

region_case_fatality <- tb_burden %>%
  rate_region(metric = "e_inc_num") %>%
  left_join(tb_burden %>%
              rate_region(metric = "e_mort_num")) %>%
  mutate(case_fat_rate = e_mort_num / e_inc_num,
         case_fat_rate_lo = e_mort_num_lo / e_inc_num_hi,
         case_fat_rate_hi = e_mort_num_hi / e_inc_num_lo)
#> Joining, by = c("year", "g_whoregion", "e_pop_num")

region_case_fatality
#> # A tibble: 114 x 12
#>     year g_whoregion e_inc_num e_inc_num_lo e_inc_num_hi e_pop_num e_mort_num
#>    <int> <chr>           <dbl>        <dbl>        <dbl>     <dbl>      <dbl>
#>  1  2000 Africa          329.         209.         477.     6.54e8     129.  
#>  2  2000 Americas         36.2         28.5         44.5    8.33e8       4.69
#>  3  2000 Eastern Me…     128.          88.4        176.     4.50e8      19.4 
#>  4  2000 Europe           51.7         37.5         68.5    8.56e8       8.87
#>  5  2000 South-East…     299.         183.         449.     1.57e9      67.2 
#>  6  2000 Western Pa…     135.          92.5        186.     1.71e9      13.4 
#>  7  2001 Africa          335.         213.         482.     6.71e8     129.  
#>  8  2001 Americas         34.3         27.3         42.4    8.43e8       4.50
#>  9  2001 Eastern Me…     128.          88.0        176.     4.60e8      18.9 
#> 10  2001 Europe           51.2         37.1         67.5    8.58e8       8.66
#> # … with 104 more rows, and 5 more variables: e_mort_num_lo <dbl>,
#> #   e_mort_num_hi <dbl>, case_fat_rate <dbl>, case_fat_rate_lo <dbl>,
#> #   case_fat_rate_hi <dbl>
…
